code/week2_p3.vcd
$date
	Thu Aug 22 12:39:49 2024
$end
$version
	Icarus Verilog
$end
$timescale
	1s
$end
$scope module tb_simple_circuit $end
$var wire 1 ! D $end
$var reg 1 " A $end
$var reg 1 # B $end
$var reg 1 $ C $end
$scope module M1 $end
$var wire 1 % A $end
$var wire 1 & B $end
$var wire 1 ' C $end
$var wire 1 ! D $end
$var wire 1 ( w1 $end
$var wire 1 ) w2 $end
$var wire 1 * w3 $end
$scope module G1 $end
$var wire 1 ' a $end
$var wire 1 & b $end
$var wire 1 ( c $end
$upscope $end
$scope module G2 $end
$var wire 1 ( a $end
$var wire 1 % b $end
$var wire 1 ) c $end
$upscope $end
$scope module G3 $end
$var wire 1 % a $end
$var wire 1 & b $end
$var wire 1 * c $end
$upscope $end
$scope module G4 $end
$var wire 1 ) a $end
$var wire 1 * b $end
$var wire 1 ! c $end
$upscope $end
$upscope $end
$upscope $end
$enddefinitions $end
#0
$dumpvars
0*
0)
0(
0'
0&
0%
0$
0#
0"
0!
$end
#20
1$
1'
#40
0$
0'
1#
1&
#60
1!
1)
1(
1$
1'
#80
0(
0$
0'
0#
0&
1"
1%
#100
1$
1'
#120
1*
0$
0'
1#
1&
#140
1(
1$
1'
